Anub'Rekhan,25
Baron Geddon,7
Battleguard Sartura,20
Broodlord Lashlayer,15
C'Thun,40
Chromaggus,20
Ebonroc,15
Fankriss the Unyielding,20
Firemaw,15
Flamegor,15
Garr,7
Gehennas,5
Gluth,25
Golemagg the Incinerator,7
Gothik the Harvester,25
Grand Widow Faerlina,25
Grobbulus,25
Heigan the Unclean,25
Instructor Razuvious,25
Kel'Thuzad,50
Loatheb,25
Lucifron,5
Maexxna,25
Magmadar,5
Majordomo Executus,10
Nefarian,30
Noth the Plaguebringer,25
Onyxia,11
Ouro,30
Patchwerk,25
Princess Huhuran,20
Ragnaros,20
Razorgore the Untamed,15
Sapphiron,35
Shazzrah,7
Sulfuron Harbinger,7
Thaddius,25
The Four Horsemen,25
The Prophet Skeram,20
Three Bugs,20
Twin Emperors,20
Vaelastrasz the Corrupt,15
Viscidus,20
Trash Mob,0